{
  "register_201": {
    "success": true,
    "data": {
      "user": {
        "id": 1,
        "name": "Jane Doe",
        "email": "jane@example.com",
        "created_at": "2025-03-27T12:00:00+00:00"
      },
      "access_token": "eyJ0eXAiOiJKV1QiLCJhbGc...",
      "token_type": "Bearer",
      "expires_in": 3600
    },
    "message": "User registered successfully."
  },
  "login_200": {
    "success": true,
    "data": {
      "user": {
        "id": 1,
        "name": "Jane Doe",
        "email": "jane@example.com",
        "created_at": "2025-03-27T12:00:00+00:00"
      },
      "access_token": "eyJ0eXAiOiJKV1QiLCJhbGc...",
      "token_type": "Bearer",
      "expires_in": 3600
    },
    "message": "Login successful."
  },
  "login_401": {
    "success": false,
    "data": null,
    "message": "Invalid credentials."
  },
  "me_200": {
    "success": true,
    "data": {
      "id": 1,
      "name": "Jane Doe",
      "email": "jane@example.com",
      "created_at": "2025-03-27T12:00:00+00:00"
    },
    "message": "Profile retrieved successfully."
  },
  "events_index_200": {
    "success": true,
    "data": {
      "events": [
        {
          "id": 1,
          "title": "Laravel Meetup",
          "description": "Community event",
          "date": "2025-06-01T18:00:00+00:00",
          "location": "Berlin",
          "owner": {
            "id": 1,
            "name": "Jane Doe",
            "email": "jane@example.com",
            "created_at": "2025-03-27T12:00:00+00:00"
          },
          "registrations_count": 12,
          "created_at": "2025-03-27T12:00:00+00:00",
          "updated_at": "2025-03-27T12:00:00+00:00"
        }
      ],
      "meta": {
        "current_page": 1,
        "from": 1,
        "last_page": 3,
        "per_page": 15,
        "to": 15,
        "total": 42
      },
      "links": {
        "first": "http://localhost/api/events?page=1",
        "last": "http://localhost/api/events?page=3",
        "prev": null,
        "next": "http://localhost/api/events?page=2"
      }
    },
    "message": ""
  },
  "event_show_200": {
    "success": true,
    "data": {
      "id": 1,
      "title": "Laravel Meetup",
      "description": "Community event",
      "date": "2025-06-01T18:00:00+00:00",
      "location": "Berlin",
      "owner": {
        "id": 1,
        "name": "Jane Doe",
        "email": "jane@example.com",
        "created_at": "2025-03-27T12:00:00+00:00"
      },
      "registrations_count": 12,
      "created_at": "2025-03-27T12:00:00+00:00",
      "updated_at": "2025-03-27T12:00:00+00:00"
    },
    "message": "Event retrieved successfully."
  },
  "validation_error_422": {
    "success": false,
    "data": {
      "errors": {
        "email": ["The email field is required."]
      }
    },
    "message": "The email field is required."
  },
  "unauthenticated_401": {
    "success": false,
    "data": null,
    "message": "Unauthenticated."
  },
  "forbidden_403": {
    "success": false,
    "data": null,
    "message": "This action is unauthorized."
  },
  "register_duplicate_409": {
    "success": false,
    "data": null,
    "message": "You are already registered for this event."
  }
}
